<?xml version="1.0" encoding="UTF-8" standalone="no"?>
<!-- Created with Inkscape (http://www.inkscape.org/) -->

<svg
   xmlns:dc="http://purl.org/dc/elements/1.1/"
   xmlns:cc="http://creativecommons.org/ns#"
   xmlns:rdf="http://www.w3.org/1999/02/22-rdf-syntax-ns#"
   xmlns:svg="http://www.w3.org/2000/svg"
   xmlns="http://www.w3.org/2000/svg"
   xmlns:sodipodi="http://sodipodi.sourceforge.net/DTD/sodipodi-0.dtd"
   xmlns:inkscape="http://www.inkscape.org/namespaces/inkscape"
   width="18"
   height="18"
   viewBox="0 0 18.000001 18"
   id="svg3358"
   version="1.1"
   inkscape:version="0.91 r13725"
   sodipodi:docname="search.svg">
  <defs
     id="defs3360" />
  <sodipodi:namedview
     id="base"
     pagecolor="#ffffff"
     bordercolor="#666666"
     borderopacity="1.0"
     inkscape:pageopacity="0.0"
     inkscape:pageshadow="2"
     inkscape:zoom="11.2"
     inkscape:cx="8.5542754"
     inkscape:cy="7.2213396"
     inkscape:document-units="px"
     inkscape:current-layer="layer1"
     showgrid="false"
     units="px"
     inkscape:window-width="1920"
     inkscape:window-height="1030"
     inkscape:window-x="1920"
     inkscape:window-y="25"
     inkscape:window-maximized="1" />
  <metadata
     id="metadata3363">
    <rdf:RDF>
      <cc:Work
         rdf:about="">
        <dc:format>image/svg+xml</dc:format>
        <dc:type
           rdf:resource="http://purl.org/dc/dcmitype/StillImage" />
        <dc:title></dc:title>
      </cc:Work>
    </rdf:RDF>
  </metadata>
  <g
     inkscape:label="Layer 1"
     inkscape:groupmode="layer"
     id="layer1"
     transform="translate(0,-1034.3622)">
    <path
       style="opacity:1;fill:#000000;fill-opacity:1;stroke:none;stroke-width:6;stroke-miterlimit:4;stroke-dasharray:6, 1;stroke-dashoffset:0"
       d="M 7.0859375 0 A 7.0868495 7.0868495 0 0 0 0 7.0859375 A 7.0868495 7.0868495 0 0 0 7.0859375 14.173828 A 7.0868495 7.0868495 0 0 0 11.373047 12.720703 L 16.353516 18 L 18 16.494141 L 12.916016 11.101562 A 7.0868495 7.0868495 0 0 0 14.173828 7.0859375 A 7.0868495 7.0868495 0 0 0 7.0859375 0 z M 7.0859375 1.4042969 A 5.6821065 5.6821065 0 0 1 12.769531 7.0859375 A 5.6821065 5.6821065 0 0 1 7.0859375 12.769531 A 5.6821065 5.6821065 0 0 1 1.4042969 7.0859375 A 5.6821065 5.6821065 0 0 1 7.0859375 1.4042969 z "
       transform="translate(0,1034.3622)"
       id="path3381" />
  </g>
</svg>
