{
  "app": {
    "mainMenu": [
      {
        "link": "/catalog",
        "title": "Курсы и лекции"
      },
      {
        "link": "/schedule",
        "title": "Расписание"
      },
      {
        "link": "/lecturers",
        "title": "Лекторы"
      },
      {
        "link": "/certificate",
        "title": "Сертификат",
        "image": "/assets/img/gift.svg"
      },
      {
        "link": "/subscription",
        "title": "Абонемент"
      },
      {
        "link": "/about",
        "title": "О проекте"
      }
    ],
    "userMenu": {
      "signIn": {
        "link": "#",
        "title": "Войти"
      },
      "signOut": {
        "link": "/users/logout",
        "title": "Выйти"
      },
      "account": {
        "link": "/account",
        "title": "Мои заказы",
        "image": "/assets/img/account.svg"
      }
    },
    "phone": "+7 (495) 777 77 77",
    "home": {
      "promoImage": "assets/img/promo_bg.jpg",
      "promoSubImage": "/assets/img/promo_sub_bg.png"
    },
    "email": "hello@synchronize.ru"
  }
}
